[
    {
        "localidade": "42",
        "sexo": null,
        "res": [
            {
                "nome": "MARIA",
                "frequencia": 210558,
                "ranking": 1
            },
            {
                "nome": "JOAO",
                "frequencia": 94363,
                "ranking": 2
            }
        ]
    }
]
